%YAML 1.1
%TAG !u! tag:unity3d.com,2011:
--- !u!1 &7213365177139324784
GameObject:
  m_ObjectHideFlags: 0
  m_CorrespondingSourceObject: {fileID: 0}
  m_PrefabInstance: {fileID: 0}
  m_PrefabAsset: {fileID: 0}
  serializedVersion: 6
  m_Component:
  - component: {fileID: 4783451586491957238}
  m_Layer: 0
  m_Name: Armature
  m_TagString: Untagged
  m_Icon: {fileID: 0}
  m_NavMeshLayer: 0
  m_StaticEditorFlags: 0
  m_IsActive: 1
--- !u!4 &4783451586491957238
Transform:
  m_ObjectHideFlags: 0
  m_CorrespondingSourceObject: {fileID: 0}
  m_PrefabInstance: {fileID: 0}
  m_PrefabAsset: {fileID: 0}
  m_GameObject: {fileID: 7213365177139324784}
  serializedVersion: 2
  m_LocalRotation: {x: 0.49999997, y: 0.49999997, z: 0.50000006, w: 0.5000001}
  m_LocalPosition: {x: 0, y: 0, z: 0}
  m_LocalScale: {x: 100, y: 100, z: 100}
  m_ConstrainProportionsScale: 0
  m_Children:
  - {fileID: 1932827604342936140}
  m_Father: {fileID: 0}
  m_LocalEulerAnglesHint: {x: 0, y: 90, z: 90}
--- !u!1001 &8492902619941850770
PrefabInstance:
  m_ObjectHideFlags: 0
  serializedVersion: 2
  m_Modification:
    serializedVersion: 3
    m_TransformParent: {fileID: 4783451586491957238}
    m_Modifications:
    - target: {fileID: 3073034582000428378, guid: 578ef934c597ed1429211cfa9d676e2a,
        type: 3}
      propertyPath: m_Name
      value: body
      objectReference: {fileID: 0}
    - target: {fileID: 8002352933715860702, guid: 578ef934c597ed1429211cfa9d676e2a,
        type: 3}
      propertyPath: m_LocalPosition.x
      value: -0
      objectReference: {fileID: 0}
    - target: {fileID: 8002352933715860702, guid: 578ef934c597ed1429211cfa9d676e2a,
        type: 3}
      propertyPath: m_LocalPosition.y
      value: 0
      objectReference: {fileID: 0}
    - target: {fileID: 8002352933715860702, guid: 578ef934c597ed1429211cfa9d676e2a,
        type: 3}
      propertyPath: m_LocalPosition.z
      value: 0
      objectReference: {fileID: 0}
    - target: {fileID: 8002352933715860702, guid: 578ef934c597ed1429211cfa9d676e2a,
        type: 3}
      propertyPath: m_LocalRotation.w
      value: 1
      objectReference: {fileID: 0}
    - target: {fileID: 8002352933715860702, guid: 578ef934c597ed1429211cfa9d676e2a,
        type: 3}
      propertyPath: m_LocalRotation.x
      value: 0
      objectReference: {fileID: 0}
    - target: {fileID: 8002352933715860702, guid: 578ef934c597ed1429211cfa9d676e2a,
        type: 3}
      propertyPath: m_LocalRotation.y
      value: 0
      objectReference: {fileID: 0}
    - target: {fileID: 8002352933715860702, guid: 578ef934c597ed1429211cfa9d676e2a,
        type: 3}
      propertyPath: m_LocalRotation.z
      value: 0
      objectReference: {fileID: 0}
    - target: {fileID: 8002352933715860702, guid: 578ef934c597ed1429211cfa9d676e2a,
        type: 3}
      propertyPath: m_LocalEulerAnglesHint.x
      value: 0
      objectReference: {fileID: 0}
    - target: {fileID: 8002352933715860702, guid: 578ef934c597ed1429211cfa9d676e2a,
        type: 3}
      propertyPath: m_LocalEulerAnglesHint.y
      value: 0
      objectReference: {fileID: 0}
    - target: {fileID: 8002352933715860702, guid: 578ef934c597ed1429211cfa9d676e2a,
        type: 3}
      propertyPath: m_LocalEulerAnglesHint.z
      value: 0
      objectReference: {fileID: 0}
    m_RemovedComponents: []
    m_RemovedGameObjects: []
    m_AddedGameObjects: []
    m_AddedComponents: []
  m_SourcePrefab: {fileID: 100100000, guid: 578ef934c597ed1429211cfa9d676e2a, type: 3}
--- !u!4 &1932827604342936140 stripped
Transform:
  m_CorrespondingSourceObject: {fileID: 8002352933715860702, guid: 578ef934c597ed1429211cfa9d676e2a,
    type: 3}
  m_PrefabInstance: {fileID: 8492902619941850770}
  m_PrefabAsset: {fileID: 0}
