%YAML 1.1
%TAG !u! tag:unity3d.com,2011:
--- !u!1001 &6312807342348073221
PrefabInstance:
  m_ObjectHideFlags: 0
  serializedVersion: 2
  m_Modification:
    serializedVersion: 3
    m_TransformParent: {fileID: 0}
    m_Modifications:
    - target: {fileID: 100000, guid: a3e7446953fa820488dd6f8b4148f453, type: 3}
      propertyPath: m_Name
      value: OldWall1
      objectReference: {fileID: 0}
    - target: {fileID: 100000, guid: a3e7446953fa820488dd6f8b4148f453, type: 3}
      propertyPath: m_IsActive
      value: 1
      objectReference: {fileID: 0}
    - target: {fileID: 100000, guid: a3e7446953fa820488dd6f8b4148f453, type: 3}
      propertyPath: m_StaticEditorFlags
      value: 4294967295
      objectReference: {fileID: 0}
    - target: {fileID: 400000, guid: a3e7446953fa820488dd6f8b4148f453, type: 3}
      propertyPath: m_RootOrder
      value: 38
      objectReference: {fileID: 0}
    - target: {fileID: 400000, guid: a3e7446953fa820488dd6f8b4148f453, type: 3}
      propertyPath: m_LocalPosition.x
      value: 0
      objectReference: {fileID: 0}
    - target: {fileID: 400000, guid: a3e7446953fa820488dd6f8b4148f453, type: 3}
      propertyPath: m_LocalPosition.y
      value: 0
      objectReference: {fileID: 0}
    - target: {fileID: 400000, guid: a3e7446953fa820488dd6f8b4148f453, type: 3}
      propertyPath: m_LocalPosition.z
      value: 0
      objectReference: {fileID: 0}
    - target: {fileID: 400000, guid: a3e7446953fa820488dd6f8b4148f453, type: 3}
      propertyPath: m_LocalRotation.w
      value: 1
      objectReference: {fileID: 0}
    - target: {fileID: 400000, guid: a3e7446953fa820488dd6f8b4148f453, type: 3}
      propertyPath: m_LocalRotation.x
      value: -0
      objectReference: {fileID: 0}
    - target: {fileID: 400000, guid: a3e7446953fa820488dd6f8b4148f453, type: 3}
      propertyPath: m_LocalRotation.y
      value: -0
      objectReference: {fileID: 0}
    - target: {fileID: 400000, guid: a3e7446953fa820488dd6f8b4148f453, type: 3}
      propertyPath: m_LocalRotation.z
      value: -0
      objectReference: {fileID: 0}
    - target: {fileID: 400000, guid: a3e7446953fa820488dd6f8b4148f453, type: 3}
      propertyPath: m_LocalEulerAnglesHint.x
      value: 0
      objectReference: {fileID: 0}
    - target: {fileID: 400000, guid: a3e7446953fa820488dd6f8b4148f453, type: 3}
      propertyPath: m_LocalEulerAnglesHint.y
      value: 0
      objectReference: {fileID: 0}
    - target: {fileID: 400000, guid: a3e7446953fa820488dd6f8b4148f453, type: 3}
      propertyPath: m_LocalEulerAnglesHint.z
      value: 0
      objectReference: {fileID: 0}
    m_RemovedComponents: []
    m_RemovedGameObjects: []
    m_AddedGameObjects: []
    m_AddedComponents:
    - targetCorrespondingSourceObject: {fileID: 100000, guid: a3e7446953fa820488dd6f8b4148f453,
        type: 3}
      insertIndex: -1
      addedObject: {fileID: 4906011410477523870}
  m_SourcePrefab: {fileID: 100100000, guid: a3e7446953fa820488dd6f8b4148f453, type: 3}
--- !u!1 &6312807342348173221 stripped
GameObject:
  m_CorrespondingSourceObject: {fileID: 100000, guid: a3e7446953fa820488dd6f8b4148f453,
    type: 3}
  m_PrefabInstance: {fileID: 6312807342348073221}
  m_PrefabAsset: {fileID: 0}
--- !u!65 &4906011410477523870
BoxCollider:
  m_ObjectHideFlags: 0
  m_CorrespondingSourceObject: {fileID: 0}
  m_PrefabInstance: {fileID: 0}
  m_PrefabAsset: {fileID: 0}
  m_GameObject: {fileID: 6312807342348173221}
  m_Material: {fileID: 0}
  m_IncludeLayers:
    serializedVersion: 2
    m_Bits: 0
  m_ExcludeLayers:
    serializedVersion: 2
    m_Bits: 0
  m_LayerOverridePriority: 0
  m_IsTrigger: 0
  m_ProvidesContacts: 0
  m_Enabled: 1
  serializedVersion: 3
  m_Size: {x: 1.13, y: 2.3, z: 6.3}
  m_Center: {x: 0, y: 1.05, z: 0}
