%YAML 1.1
%TAG !u! tag:unity3d.com,2011:
--- !u!1001 &1262240484441731637
PrefabInstance:
  m_ObjectHideFlags: 0
  serializedVersion: 2
  m_Modification:
    serializedVersion: 3
    m_TransformParent: {fileID: 0}
    m_Modifications:
    - target: {fileID: -8679921383154817045, guid: ddbb21f6fab50194e81555729bd2390f,
        type: 3}
      propertyPath: m_LocalPosition.x
      value: 0
      objectReference: {fileID: 0}
    - target: {fileID: -8679921383154817045, guid: ddbb21f6fab50194e81555729bd2390f,
        type: 3}
      propertyPath: m_LocalPosition.y
      value: 0
      objectReference: {fileID: 0}
    - target: {fileID: -8679921383154817045, guid: ddbb21f6fab50194e81555729bd2390f,
        type: 3}
      propertyPath: m_LocalPosition.z
      value: 0
      objectReference: {fileID: 0}
    - target: {fileID: -8679921383154817045, guid: ddbb21f6fab50194e81555729bd2390f,
        type: 3}
      propertyPath: m_LocalRotation.w
      value: 1
      objectReference: {fileID: 0}
    - target: {fileID: -8679921383154817045, guid: ddbb21f6fab50194e81555729bd2390f,
        type: 3}
      propertyPath: m_LocalRotation.x
      value: -0
      objectReference: {fileID: 0}
    - target: {fileID: -8679921383154817045, guid: ddbb21f6fab50194e81555729bd2390f,
        type: 3}
      propertyPath: m_LocalRotation.y
      value: -0
      objectReference: {fileID: 0}
    - target: {fileID: -8679921383154817045, guid: ddbb21f6fab50194e81555729bd2390f,
        type: 3}
      propertyPath: m_LocalRotation.z
      value: -0
      objectReference: {fileID: 0}
    - target: {fileID: -8679921383154817045, guid: ddbb21f6fab50194e81555729bd2390f,
        type: 3}
      propertyPath: m_LocalEulerAnglesHint.x
      value: 0
      objectReference: {fileID: 0}
    - target: {fileID: -8679921383154817045, guid: ddbb21f6fab50194e81555729bd2390f,
        type: 3}
      propertyPath: m_LocalEulerAnglesHint.y
      value: 0
      objectReference: {fileID: 0}
    - target: {fileID: -8679921383154817045, guid: ddbb21f6fab50194e81555729bd2390f,
        type: 3}
      propertyPath: m_LocalEulerAnglesHint.z
      value: 0
      objectReference: {fileID: 0}
    - target: {fileID: -8135616045869624950, guid: ddbb21f6fab50194e81555729bd2390f,
        type: 3}
      propertyPath: m_LocalPosition.x
      value: -0.000326
      objectReference: {fileID: 0}
    - target: {fileID: -8135616045869624950, guid: ddbb21f6fab50194e81555729bd2390f,
        type: 3}
      propertyPath: m_LocalPosition.y
      value: 0.000783
      objectReference: {fileID: 0}
    - target: {fileID: -8135616045869624950, guid: ddbb21f6fab50194e81555729bd2390f,
        type: 3}
      propertyPath: m_LocalPosition.z
      value: -0.00015
      objectReference: {fileID: 0}
    - target: {fileID: -5568371526223589888, guid: ddbb21f6fab50194e81555729bd2390f,
        type: 3}
      propertyPath: m_Name
      value: SkinnedMesh
      objectReference: {fileID: 0}
    - target: {fileID: -4440262578645315295, guid: ddbb21f6fab50194e81555729bd2390f,
        type: 3}
      propertyPath: m_IsActive
      value: 1
      objectReference: {fileID: 0}
    - target: {fileID: -2577548232221058511, guid: ddbb21f6fab50194e81555729bd2390f,
        type: 3}
      propertyPath: m_LocalScale.x
      value: 1
      objectReference: {fileID: 0}
    - target: {fileID: -2577548232221058511, guid: ddbb21f6fab50194e81555729bd2390f,
        type: 3}
      propertyPath: m_LocalScale.y
      value: 1
      objectReference: {fileID: 0}
    - target: {fileID: -2577548232221058511, guid: ddbb21f6fab50194e81555729bd2390f,
        type: 3}
      propertyPath: m_LocalScale.z
      value: 1
      objectReference: {fileID: 0}
    - target: {fileID: -2577548232221058511, guid: ddbb21f6fab50194e81555729bd2390f,
        type: 3}
      propertyPath: m_LocalPosition.x
      value: 0
      objectReference: {fileID: 0}
    - target: {fileID: -2577548232221058511, guid: ddbb21f6fab50194e81555729bd2390f,
        type: 3}
      propertyPath: m_LocalPosition.y
      value: 0
      objectReference: {fileID: 0}
    - target: {fileID: -2577548232221058511, guid: ddbb21f6fab50194e81555729bd2390f,
        type: 3}
      propertyPath: m_LocalPosition.z
      value: 0
      objectReference: {fileID: 0}
    - target: {fileID: -2577548232221058511, guid: ddbb21f6fab50194e81555729bd2390f,
        type: 3}
      propertyPath: m_LocalRotation.w
      value: 1
      objectReference: {fileID: 0}
    - target: {fileID: -2577548232221058511, guid: ddbb21f6fab50194e81555729bd2390f,
        type: 3}
      propertyPath: m_LocalRotation.y
      value: 0
      objectReference: {fileID: 0}
    - target: {fileID: -2577548232221058511, guid: ddbb21f6fab50194e81555729bd2390f,
        type: 3}
      propertyPath: m_LocalRotation.z
      value: 0
      objectReference: {fileID: 0}
    - target: {fileID: -2577548232221058511, guid: ddbb21f6fab50194e81555729bd2390f,
        type: 3}
      propertyPath: m_ConstrainProportionsScale
      value: 1
      objectReference: {fileID: 0}
    - target: {fileID: -271751823400974190, guid: ddbb21f6fab50194e81555729bd2390f,
        type: 3}
      propertyPath: m_LocalPosition.x
      value: -0.0001
      objectReference: {fileID: 0}
    - target: {fileID: -271751823400974190, guid: ddbb21f6fab50194e81555729bd2390f,
        type: 3}
      propertyPath: m_LocalPosition.y
      value: 0.00065
      objectReference: {fileID: 0}
    - target: {fileID: -271751823400974190, guid: ddbb21f6fab50194e81555729bd2390f,
        type: 3}
      propertyPath: m_LocalPosition.z
      value: 0.000077
      objectReference: {fileID: 0}
    - target: {fileID: -271751823400974190, guid: ddbb21f6fab50194e81555729bd2390f,
        type: 3}
      propertyPath: m_LocalRotation.w
      value: 0.30070582
      objectReference: {fileID: 0}
    - target: {fileID: -271751823400974190, guid: ddbb21f6fab50194e81555729bd2390f,
        type: 3}
      propertyPath: m_LocalRotation.x
      value: 0
      objectReference: {fileID: 0}
    - target: {fileID: -271751823400974190, guid: ddbb21f6fab50194e81555729bd2390f,
        type: 3}
      propertyPath: m_LocalRotation.y
      value: 0
      objectReference: {fileID: 0}
    - target: {fileID: -271751823400974190, guid: ddbb21f6fab50194e81555729bd2390f,
        type: 3}
      propertyPath: m_LocalRotation.z
      value: -0.95371693
      objectReference: {fileID: 0}
    - target: {fileID: -271751823400974190, guid: ddbb21f6fab50194e81555729bd2390f,
        type: 3}
      propertyPath: m_LocalEulerAnglesHint.z
      value: -145
      objectReference: {fileID: 0}
    - target: {fileID: 218961767598243439, guid: ddbb21f6fab50194e81555729bd2390f,
        type: 3}
      propertyPath: m_LocalPosition.x
      value: 0.00015
      objectReference: {fileID: 0}
    - target: {fileID: 218961767598243439, guid: ddbb21f6fab50194e81555729bd2390f,
        type: 3}
      propertyPath: m_LocalPosition.y
      value: 0.00059
      objectReference: {fileID: 0}
    - target: {fileID: 218961767598243439, guid: ddbb21f6fab50194e81555729bd2390f,
        type: 3}
      propertyPath: m_LocalPosition.z
      value: 0.000105
      objectReference: {fileID: 0}
    - target: {fileID: 218961767598243439, guid: ddbb21f6fab50194e81555729bd2390f,
        type: 3}
      propertyPath: m_LocalRotation.w
      value: 0.7071068
      objectReference: {fileID: 0}
    - target: {fileID: 218961767598243439, guid: ddbb21f6fab50194e81555729bd2390f,
        type: 3}
      propertyPath: m_LocalRotation.x
      value: -0.7071068
      objectReference: {fileID: 0}
    - target: {fileID: 218961767598243439, guid: ddbb21f6fab50194e81555729bd2390f,
        type: 3}
      propertyPath: m_LocalRotation.z
      value: 0
      objectReference: {fileID: 0}
    - target: {fileID: 218961767598243439, guid: ddbb21f6fab50194e81555729bd2390f,
        type: 3}
      propertyPath: m_LocalEulerAnglesHint.x
      value: -90
      objectReference: {fileID: 0}
    - target: {fileID: 919132149155446097, guid: ddbb21f6fab50194e81555729bd2390f,
        type: 3}
      propertyPath: m_Name
      value: M67 Grenade
      objectReference: {fileID: 0}
    - target: {fileID: 970674607662688680, guid: ddbb21f6fab50194e81555729bd2390f,
        type: 3}
      propertyPath: m_LocalScale.y
      value: 1
      objectReference: {fileID: 0}
    - target: {fileID: 970674607662688680, guid: ddbb21f6fab50194e81555729bd2390f,
        type: 3}
      propertyPath: m_LocalPosition.y
      value: 0.00022
      objectReference: {fileID: 0}
    - target: {fileID: 970674607662688680, guid: ddbb21f6fab50194e81555729bd2390f,
        type: 3}
      propertyPath: m_LocalRotation.w
      value: 0.807411
      objectReference: {fileID: 0}
    - target: {fileID: 970674607662688680, guid: ddbb21f6fab50194e81555729bd2390f,
        type: 3}
      propertyPath: m_LocalRotation.x
      value: -0.5577823
      objectReference: {fileID: 0}
    - target: {fileID: 970674607662688680, guid: ddbb21f6fab50194e81555729bd2390f,
        type: 3}
      propertyPath: m_LocalRotation.y
      value: 0.11001015
      objectReference: {fileID: 0}
    - target: {fileID: 970674607662688680, guid: ddbb21f6fab50194e81555729bd2390f,
        type: 3}
      propertyPath: m_LocalRotation.z
      value: -0.15768388
      objectReference: {fileID: 0}
    - target: {fileID: 970674607662688680, guid: ddbb21f6fab50194e81555729bd2390f,
        type: 3}
      propertyPath: m_LocalEulerAnglesHint.x
      value: -60
      objectReference: {fileID: 0}
    - target: {fileID: 970674607662688680, guid: ddbb21f6fab50194e81555729bd2390f,
        type: 3}
      propertyPath: m_LocalEulerAnglesHint.y
      value: 45
      objectReference: {fileID: 0}
    - target: {fileID: 970674607662688680, guid: ddbb21f6fab50194e81555729bd2390f,
        type: 3}
      propertyPath: m_LocalEulerAnglesHint.z
      value: -49
      objectReference: {fileID: 0}
    - target: {fileID: 2897507498952796372, guid: ddbb21f6fab50194e81555729bd2390f,
        type: 3}
      propertyPath: m_LocalPosition.x
      value: 0
      objectReference: {fileID: 0}
    - target: {fileID: 2897507498952796372, guid: ddbb21f6fab50194e81555729bd2390f,
        type: 3}
      propertyPath: m_LocalPosition.y
      value: 0
      objectReference: {fileID: 0}
    - target: {fileID: 2897507498952796372, guid: ddbb21f6fab50194e81555729bd2390f,
        type: 3}
      propertyPath: m_LocalRotation.w
      value: 1
      objectReference: {fileID: 0}
    - target: {fileID: 2897507498952796372, guid: ddbb21f6fab50194e81555729bd2390f,
        type: 3}
      propertyPath: m_LocalRotation.x
      value: 0
      objectReference: {fileID: 0}
    - target: {fileID: 2897507498952796372, guid: ddbb21f6fab50194e81555729bd2390f,
        type: 3}
      propertyPath: m_LocalRotation.z
      value: 0
      objectReference: {fileID: 0}
    - target: {fileID: 2897507498952796372, guid: ddbb21f6fab50194e81555729bd2390f,
        type: 3}
      propertyPath: m_LocalEulerAnglesHint.x
      value: 0
      objectReference: {fileID: 0}
    - target: {fileID: 5074512353664290214, guid: ddbb21f6fab50194e81555729bd2390f,
        type: 3}
      propertyPath: m_AABB.m_Center.x
      value: 0
      objectReference: {fileID: 0}
    - target: {fileID: 5074512353664290214, guid: ddbb21f6fab50194e81555729bd2390f,
        type: 3}
      propertyPath: m_AABB.m_Center.y
      value: 0.0003
      objectReference: {fileID: 0}
    - target: {fileID: 5074512353664290214, guid: ddbb21f6fab50194e81555729bd2390f,
        type: 3}
      propertyPath: m_AABB.m_Center.z
      value: 0
      objectReference: {fileID: 0}
    - target: {fileID: 5074512353664290214, guid: ddbb21f6fab50194e81555729bd2390f,
        type: 3}
      propertyPath: m_AABB.m_Extent.x
      value: 0.0004
      objectReference: {fileID: 0}
    - target: {fileID: 5074512353664290214, guid: ddbb21f6fab50194e81555729bd2390f,
        type: 3}
      propertyPath: m_AABB.m_Extent.y
      value: 0.0004
      objectReference: {fileID: 0}
    - target: {fileID: 5074512353664290214, guid: ddbb21f6fab50194e81555729bd2390f,
        type: 3}
      propertyPath: m_AABB.m_Extent.z
      value: 0.0003
      objectReference: {fileID: 0}
    - target: {fileID: 8879528566716807029, guid: ddbb21f6fab50194e81555729bd2390f,
        type: 3}
      propertyPath: m_LocalPosition.x
      value: 0
      objectReference: {fileID: 0}
    - target: {fileID: 8879528566716807029, guid: ddbb21f6fab50194e81555729bd2390f,
        type: 3}
      propertyPath: m_LocalPosition.y
      value: 0
      objectReference: {fileID: 0}
    - target: {fileID: 8879528566716807029, guid: ddbb21f6fab50194e81555729bd2390f,
        type: 3}
      propertyPath: m_LocalPosition.z
      value: 0
      objectReference: {fileID: 0}
    - target: {fileID: 8879528566716807029, guid: ddbb21f6fab50194e81555729bd2390f,
        type: 3}
      propertyPath: m_LocalRotation.w
      value: 1
      objectReference: {fileID: 0}
    - target: {fileID: 8879528566716807029, guid: ddbb21f6fab50194e81555729bd2390f,
        type: 3}
      propertyPath: m_LocalRotation.x
      value: 0
      objectReference: {fileID: 0}
    - target: {fileID: 8879528566716807029, guid: ddbb21f6fab50194e81555729bd2390f,
        type: 3}
      propertyPath: m_LocalRotation.z
      value: 0
      objectReference: {fileID: 0}
    - target: {fileID: 8879528566716807029, guid: ddbb21f6fab50194e81555729bd2390f,
        type: 3}
      propertyPath: m_ConstrainProportionsScale
      value: 1
      objectReference: {fileID: 0}
    m_RemovedComponents: []
    m_RemovedGameObjects:
    - {fileID: 65702495048144492, guid: ddbb21f6fab50194e81555729bd2390f, type: 3}
    - {fileID: -8700617353114198275, guid: ddbb21f6fab50194e81555729bd2390f, type: 3}
    - {fileID: -7144472771237108078, guid: ddbb21f6fab50194e81555729bd2390f, type: 3}
    - {fileID: -6349958411576855373, guid: ddbb21f6fab50194e81555729bd2390f, type: 3}
    m_AddedGameObjects: []
    m_AddedComponents:
    - targetCorrespondingSourceObject: {fileID: 919132149155446097, guid: ddbb21f6fab50194e81555729bd2390f,
        type: 3}
      insertIndex: -1
      addedObject: {fileID: 3734005601568720135}
    - targetCorrespondingSourceObject: {fileID: 919132149155446097, guid: ddbb21f6fab50194e81555729bd2390f,
        type: 3}
      insertIndex: -1
      addedObject: {fileID: 6534816530253376531}
    - targetCorrespondingSourceObject: {fileID: 919132149155446097, guid: ddbb21f6fab50194e81555729bd2390f,
        type: 3}
      insertIndex: -1
      addedObject: {fileID: 6603633014919699955}
  m_SourcePrefab: {fileID: 100100000, guid: ddbb21f6fab50194e81555729bd2390f, type: 3}
--- !u!1 &2109101731081686884 stripped
GameObject:
  m_CorrespondingSourceObject: {fileID: 919132149155446097, guid: ddbb21f6fab50194e81555729bd2390f,
    type: 3}
  m_PrefabInstance: {fileID: 1262240484441731637}
  m_PrefabAsset: {fileID: 0}
--- !u!135 &3734005601568720135
SphereCollider:
  m_ObjectHideFlags: 0
  m_CorrespondingSourceObject: {fileID: 0}
  m_PrefabInstance: {fileID: 0}
  m_PrefabAsset: {fileID: 0}
  m_GameObject: {fileID: 2109101731081686884}
  m_Material: {fileID: 0}
  m_IncludeLayers:
    serializedVersion: 2
    m_Bits: 0
  m_ExcludeLayers:
    serializedVersion: 2
    m_Bits: 0
  m_LayerOverridePriority: 0
  m_IsTrigger: 0
  m_ProvidesContacts: 0
  m_Enabled: 1
  serializedVersion: 3
  m_Radius: 0.03
  m_Center: {x: 0, y: 0.013, z: 0}
--- !u!65 &6534816530253376531
BoxCollider:
  m_ObjectHideFlags: 0
  m_CorrespondingSourceObject: {fileID: 0}
  m_PrefabInstance: {fileID: 0}
  m_PrefabAsset: {fileID: 0}
  m_GameObject: {fileID: 2109101731081686884}
  m_Material: {fileID: 0}
  m_IncludeLayers:
    serializedVersion: 2
    m_Bits: 0
  m_ExcludeLayers:
    serializedVersion: 2
    m_Bits: 0
  m_LayerOverridePriority: 0
  m_IsTrigger: 0
  m_ProvidesContacts: 0
  m_Enabled: 1
  serializedVersion: 3
  m_Size: {x: 0.02, y: 0.02, z: 0.02}
  m_Center: {x: 0, y: 0.055, z: 0}
--- !u!54 &6603633014919699955
Rigidbody:
  m_ObjectHideFlags: 0
  m_CorrespondingSourceObject: {fileID: 0}
  m_PrefabInstance: {fileID: 0}
  m_PrefabAsset: {fileID: 0}
  m_GameObject: {fileID: 2109101731081686884}
  serializedVersion: 4
  m_Mass: 1
  m_Drag: 0
  m_AngularDrag: 0.05
  m_CenterOfMass: {x: 0, y: 0, z: 0}
  m_InertiaTensor: {x: 1, y: 1, z: 1}
  m_InertiaRotation: {x: 0, y: 0, z: 0, w: 1}
  m_IncludeLayers:
    serializedVersion: 2
    m_Bits: 0
  m_ExcludeLayers:
    serializedVersion: 2
    m_Bits: 0
  m_ImplicitCom: 1
  m_ImplicitTensor: 1
  m_UseGravity: 1
  m_IsKinematic: 0
  m_Interpolate: 0
  m_Constraints: 0
  m_CollisionDetection: 0
