%YAML 1.1
%TAG !u! tag:unity3d.com,2011:
--- !u!1001 &1772153696233988092
PrefabInstance:
  m_ObjectHideFlags: 0
  serializedVersion: 2
  m_Modification:
    serializedVersion: 3
    m_TransformParent: {fileID: 0}
    m_Modifications:
    - target: {fileID: 100000, guid: 24e68485097fb1a42a8abfd021a030c3, type: 3}
      propertyPath: m_Name
      value: JoshuaTree1
      objectReference: {fileID: 0}
    - target: {fileID: 100000, guid: 24e68485097fb1a42a8abfd021a030c3, type: 3}
      propertyPath: m_StaticEditorFlags
      value: 4294967295
      objectReference: {fileID: 0}
    - target: {fileID: 400000, guid: 24e68485097fb1a42a8abfd021a030c3, type: 3}
      propertyPath: m_RootOrder
      value: 42
      objectReference: {fileID: 0}
    - target: {fileID: 400000, guid: 24e68485097fb1a42a8abfd021a030c3, type: 3}
      propertyPath: m_LocalPosition.x
      value: 0
      objectReference: {fileID: 0}
    - target: {fileID: 400000, guid: 24e68485097fb1a42a8abfd021a030c3, type: 3}
      propertyPath: m_LocalPosition.y
      value: 0
      objectReference: {fileID: 0}
    - target: {fileID: 400000, guid: 24e68485097fb1a42a8abfd021a030c3, type: 3}
      propertyPath: m_LocalPosition.z
      value: 0
      objectReference: {fileID: 0}
    - target: {fileID: 400000, guid: 24e68485097fb1a42a8abfd021a030c3, type: 3}
      propertyPath: m_LocalRotation.w
      value: 1
      objectReference: {fileID: 0}
    - target: {fileID: 400000, guid: 24e68485097fb1a42a8abfd021a030c3, type: 3}
      propertyPath: m_LocalRotation.x
      value: -0
      objectReference: {fileID: 0}
    - target: {fileID: 400000, guid: 24e68485097fb1a42a8abfd021a030c3, type: 3}
      propertyPath: m_LocalRotation.y
      value: -0
      objectReference: {fileID: 0}
    - target: {fileID: 400000, guid: 24e68485097fb1a42a8abfd021a030c3, type: 3}
      propertyPath: m_LocalRotation.z
      value: -0
      objectReference: {fileID: 0}
    - target: {fileID: 400000, guid: 24e68485097fb1a42a8abfd021a030c3, type: 3}
      propertyPath: m_LocalEulerAnglesHint.x
      value: 0
      objectReference: {fileID: 0}
    - target: {fileID: 400000, guid: 24e68485097fb1a42a8abfd021a030c3, type: 3}
      propertyPath: m_LocalEulerAnglesHint.y
      value: 0
      objectReference: {fileID: 0}
    - target: {fileID: 400000, guid: 24e68485097fb1a42a8abfd021a030c3, type: 3}
      propertyPath: m_LocalEulerAnglesHint.z
      value: 0
      objectReference: {fileID: 0}
    m_RemovedComponents: []
    m_RemovedGameObjects: []
    m_AddedGameObjects: []
    m_AddedComponents:
    - targetCorrespondingSourceObject: {fileID: 100000, guid: 24e68485097fb1a42a8abfd021a030c3,
        type: 3}
      insertIndex: -1
      addedObject: {fileID: 2890192708050728634}
  m_SourcePrefab: {fileID: 100100000, guid: 24e68485097fb1a42a8abfd021a030c3, type: 3}
--- !u!1 &1772153696234084700 stripped
GameObject:
  m_CorrespondingSourceObject: {fileID: 100000, guid: 24e68485097fb1a42a8abfd021a030c3,
    type: 3}
  m_PrefabInstance: {fileID: 1772153696233988092}
  m_PrefabAsset: {fileID: 0}
--- !u!65 &2890192708050728634
BoxCollider:
  m_ObjectHideFlags: 0
  m_CorrespondingSourceObject: {fileID: 0}
  m_PrefabInstance: {fileID: 0}
  m_PrefabAsset: {fileID: 0}
  m_GameObject: {fileID: 1772153696234084700}
  m_Material: {fileID: 0}
  m_IncludeLayers:
    serializedVersion: 2
    m_Bits: 0
  m_ExcludeLayers:
    serializedVersion: 2
    m_Bits: 0
  m_LayerOverridePriority: 0
  m_IsTrigger: 0
  m_ProvidesContacts: 0
  m_Enabled: 1
  serializedVersion: 3
  m_Size: {x: 0.5, y: 4, z: 0.5}
  m_Center: {x: -0.2, y: 2, z: -0.2}
