%YAML 1.1
%TAG !u! tag:unity3d.com,2011:
--- !u!1001 &5035057307066563285
PrefabInstance:
  m_ObjectHideFlags: 0
  serializedVersion: 2
  m_Modification:
    serializedVersion: 3
    m_TransformParent: {fileID: 0}
    m_Modifications:
    - target: {fileID: 100004, guid: 72d1e176a6aa6e44a983da62730a50ab, type: 3}
      propertyPath: m_Name
      value: Palmtree1
      objectReference: {fileID: 0}
    - target: {fileID: 100004, guid: 72d1e176a6aa6e44a983da62730a50ab, type: 3}
      propertyPath: m_StaticEditorFlags
      value: 4294967295
      objectReference: {fileID: 0}
    - target: {fileID: 400004, guid: 72d1e176a6aa6e44a983da62730a50ab, type: 3}
      propertyPath: m_RootOrder
      value: 33
      objectReference: {fileID: 0}
    - target: {fileID: 400004, guid: 72d1e176a6aa6e44a983da62730a50ab, type: 3}
      propertyPath: m_LocalPosition.x
      value: 0
      objectReference: {fileID: 0}
    - target: {fileID: 400004, guid: 72d1e176a6aa6e44a983da62730a50ab, type: 3}
      propertyPath: m_LocalPosition.y
      value: 0
      objectReference: {fileID: 0}
    - target: {fileID: 400004, guid: 72d1e176a6aa6e44a983da62730a50ab, type: 3}
      propertyPath: m_LocalPosition.z
      value: 0
      objectReference: {fileID: 0}
    - target: {fileID: 400004, guid: 72d1e176a6aa6e44a983da62730a50ab, type: 3}
      propertyPath: m_LocalRotation.w
      value: 1
      objectReference: {fileID: 0}
    - target: {fileID: 400004, guid: 72d1e176a6aa6e44a983da62730a50ab, type: 3}
      propertyPath: m_LocalRotation.x
      value: -0
      objectReference: {fileID: 0}
    - target: {fileID: 400004, guid: 72d1e176a6aa6e44a983da62730a50ab, type: 3}
      propertyPath: m_LocalRotation.y
      value: -0
      objectReference: {fileID: 0}
    - target: {fileID: 400004, guid: 72d1e176a6aa6e44a983da62730a50ab, type: 3}
      propertyPath: m_LocalRotation.z
      value: -0
      objectReference: {fileID: 0}
    - target: {fileID: 400004, guid: 72d1e176a6aa6e44a983da62730a50ab, type: 3}
      propertyPath: m_LocalEulerAnglesHint.x
      value: 0
      objectReference: {fileID: 0}
    - target: {fileID: 400004, guid: 72d1e176a6aa6e44a983da62730a50ab, type: 3}
      propertyPath: m_LocalEulerAnglesHint.y
      value: 0
      objectReference: {fileID: 0}
    - target: {fileID: 400004, guid: 72d1e176a6aa6e44a983da62730a50ab, type: 3}
      propertyPath: m_LocalEulerAnglesHint.z
      value: 0
      objectReference: {fileID: 0}
    m_RemovedComponents: []
    m_RemovedGameObjects: []
    m_AddedGameObjects: []
    m_AddedComponents:
    - targetCorrespondingSourceObject: {fileID: 100004, guid: 72d1e176a6aa6e44a983da62730a50ab,
        type: 3}
      insertIndex: -1
      addedObject: {fileID: 5396165816919135725}
  m_SourcePrefab: {fileID: 100100000, guid: 72d1e176a6aa6e44a983da62730a50ab, type: 3}
--- !u!1 &5035057307066465393 stripped
GameObject:
  m_CorrespondingSourceObject: {fileID: 100004, guid: 72d1e176a6aa6e44a983da62730a50ab,
    type: 3}
  m_PrefabInstance: {fileID: 5035057307066563285}
  m_PrefabAsset: {fileID: 0}
--- !u!65 &5396165816919135725
BoxCollider:
  m_ObjectHideFlags: 0
  m_CorrespondingSourceObject: {fileID: 0}
  m_PrefabInstance: {fileID: 0}
  m_PrefabAsset: {fileID: 0}
  m_GameObject: {fileID: 5035057307066465393}
  m_Material: {fileID: 0}
  m_IncludeLayers:
    serializedVersion: 2
    m_Bits: 0
  m_ExcludeLayers:
    serializedVersion: 2
    m_Bits: 0
  m_LayerOverridePriority: 0
  m_IsTrigger: 0
  m_ProvidesContacts: 0
  m_Enabled: 1
  serializedVersion: 3
  m_Size: {x: 1, y: 7, z: 1}
  m_Center: {x: 0, y: 3, z: 0}
