%YAML 1.1
%TAG !u! tag:unity3d.com,2011:
--- !u!1001 &8393917392148096558
PrefabInstance:
  m_ObjectHideFlags: 0
  serializedVersion: 2
  m_Modification:
    serializedVersion: 3
    m_TransformParent: {fileID: 0}
    m_Modifications:
    - target: {fileID: 100000, guid: dc24a7c5f5d5f084495c6fd9747ca5a9, type: 3}
      propertyPath: m_Name
      value: TreeDead2
      objectReference: {fileID: 0}
    - target: {fileID: 100000, guid: dc24a7c5f5d5f084495c6fd9747ca5a9, type: 3}
      propertyPath: m_StaticEditorFlags
      value: 4294967295
      objectReference: {fileID: 0}
    - target: {fileID: 400000, guid: dc24a7c5f5d5f084495c6fd9747ca5a9, type: 3}
      propertyPath: m_RootOrder
      value: 12
      objectReference: {fileID: 0}
    - target: {fileID: 400000, guid: dc24a7c5f5d5f084495c6fd9747ca5a9, type: 3}
      propertyPath: m_LocalPosition.x
      value: 0
      objectReference: {fileID: 0}
    - target: {fileID: 400000, guid: dc24a7c5f5d5f084495c6fd9747ca5a9, type: 3}
      propertyPath: m_LocalPosition.y
      value: 0
      objectReference: {fileID: 0}
    - target: {fileID: 400000, guid: dc24a7c5f5d5f084495c6fd9747ca5a9, type: 3}
      propertyPath: m_LocalPosition.z
      value: 0
      objectReference: {fileID: 0}
    - target: {fileID: 400000, guid: dc24a7c5f5d5f084495c6fd9747ca5a9, type: 3}
      propertyPath: m_LocalRotation.w
      value: 1
      objectReference: {fileID: 0}
    - target: {fileID: 400000, guid: dc24a7c5f5d5f084495c6fd9747ca5a9, type: 3}
      propertyPath: m_LocalRotation.x
      value: -0
      objectReference: {fileID: 0}
    - target: {fileID: 400000, guid: dc24a7c5f5d5f084495c6fd9747ca5a9, type: 3}
      propertyPath: m_LocalRotation.y
      value: -0
      objectReference: {fileID: 0}
    - target: {fileID: 400000, guid: dc24a7c5f5d5f084495c6fd9747ca5a9, type: 3}
      propertyPath: m_LocalRotation.z
      value: -0
      objectReference: {fileID: 0}
    - target: {fileID: 400000, guid: dc24a7c5f5d5f084495c6fd9747ca5a9, type: 3}
      propertyPath: m_LocalEulerAnglesHint.x
      value: 0
      objectReference: {fileID: 0}
    - target: {fileID: 400000, guid: dc24a7c5f5d5f084495c6fd9747ca5a9, type: 3}
      propertyPath: m_LocalEulerAnglesHint.y
      value: 0
      objectReference: {fileID: 0}
    - target: {fileID: 400000, guid: dc24a7c5f5d5f084495c6fd9747ca5a9, type: 3}
      propertyPath: m_LocalEulerAnglesHint.z
      value: 0
      objectReference: {fileID: 0}
    m_RemovedComponents: []
    m_RemovedGameObjects: []
    m_AddedGameObjects: []
    m_AddedComponents:
    - targetCorrespondingSourceObject: {fileID: 100000, guid: dc24a7c5f5d5f084495c6fd9747ca5a9,
        type: 3}
      insertIndex: -1
      addedObject: {fileID: 3366759486819794861}
    - targetCorrespondingSourceObject: {fileID: 100000, guid: dc24a7c5f5d5f084495c6fd9747ca5a9,
        type: 3}
      insertIndex: -1
      addedObject: {fileID: 7398874276272211876}
    - targetCorrespondingSourceObject: {fileID: 100000, guid: dc24a7c5f5d5f084495c6fd9747ca5a9,
        type: 3}
      insertIndex: -1
      addedObject: {fileID: 4951435704340065032}
  m_SourcePrefab: {fileID: 100100000, guid: dc24a7c5f5d5f084495c6fd9747ca5a9, type: 3}
--- !u!1 &8393917392147996814 stripped
GameObject:
  m_CorrespondingSourceObject: {fileID: 100000, guid: dc24a7c5f5d5f084495c6fd9747ca5a9,
    type: 3}
  m_PrefabInstance: {fileID: 8393917392148096558}
  m_PrefabAsset: {fileID: 0}
--- !u!65 &3366759486819794861
BoxCollider:
  m_ObjectHideFlags: 0
  m_CorrespondingSourceObject: {fileID: 0}
  m_PrefabInstance: {fileID: 0}
  m_PrefabAsset: {fileID: 0}
  m_GameObject: {fileID: 8393917392147996814}
  m_Material: {fileID: 0}
  m_IncludeLayers:
    serializedVersion: 2
    m_Bits: 0
  m_ExcludeLayers:
    serializedVersion: 2
    m_Bits: 0
  m_LayerOverridePriority: 0
  m_IsTrigger: 0
  m_ProvidesContacts: 0
  m_Enabled: 1
  serializedVersion: 3
  m_Size: {x: 0.5, y: 4, z: 0.5}
  m_Center: {x: 0.1, y: 2, z: 0.1}
--- !u!65 &7398874276272211876
BoxCollider:
  m_ObjectHideFlags: 0
  m_CorrespondingSourceObject: {fileID: 0}
  m_PrefabInstance: {fileID: 0}
  m_PrefabAsset: {fileID: 0}
  m_GameObject: {fileID: 8393917392147996814}
  m_Material: {fileID: 0}
  m_IncludeLayers:
    serializedVersion: 2
    m_Bits: 0
  m_ExcludeLayers:
    serializedVersion: 2
    m_Bits: 0
  m_LayerOverridePriority: 0
  m_IsTrigger: 0
  m_ProvidesContacts: 0
  m_Enabled: 1
  serializedVersion: 3
  m_Size: {x: 1.68, y: 0.3, z: 1.45}
  m_Center: {x: -0.94, y: 0.1, z: 1.32}
--- !u!65 &4951435704340065032
BoxCollider:
  m_ObjectHideFlags: 0
  m_CorrespondingSourceObject: {fileID: 0}
  m_PrefabInstance: {fileID: 0}
  m_PrefabAsset: {fileID: 0}
  m_GameObject: {fileID: 8393917392147996814}
  m_Material: {fileID: 0}
  m_IncludeLayers:
    serializedVersion: 2
    m_Bits: 0
  m_ExcludeLayers:
    serializedVersion: 2
    m_Bits: 0
  m_LayerOverridePriority: 0
  m_IsTrigger: 0
  m_ProvidesContacts: 0
  m_Enabled: 1
  serializedVersion: 3
  m_Size: {x: 1.52, y: 0.3, z: 1.06}
  m_Center: {x: 0.97, y: 0.1, z: -0.46}
