%YAML 1.1
%TAG !u! tag:unity3d.com,2011:
--- !u!1001 &2691541682904773480
PrefabInstance:
  m_ObjectHideFlags: 0
  serializedVersion: 2
  m_Modification:
    serializedVersion: 3
    m_TransformParent: {fileID: 0}
    m_Modifications:
    - target: {fileID: 100000, guid: 7c9d933576841444590f1347e1ddf72e, type: 3}
      propertyPath: m_Name
      value: QubicRocks1
      objectReference: {fileID: 0}
    - target: {fileID: 100000, guid: 7c9d933576841444590f1347e1ddf72e, type: 3}
      propertyPath: m_StaticEditorFlags
      value: 4294967295
      objectReference: {fileID: 0}
    - target: {fileID: 400000, guid: 7c9d933576841444590f1347e1ddf72e, type: 3}
      propertyPath: m_RootOrder
      value: 28
      objectReference: {fileID: 0}
    - target: {fileID: 400000, guid: 7c9d933576841444590f1347e1ddf72e, type: 3}
      propertyPath: m_LocalScale.x
      value: 0.6
      objectReference: {fileID: 0}
    - target: {fileID: 400000, guid: 7c9d933576841444590f1347e1ddf72e, type: 3}
      propertyPath: m_LocalScale.y
      value: 0.6
      objectReference: {fileID: 0}
    - target: {fileID: 400000, guid: 7c9d933576841444590f1347e1ddf72e, type: 3}
      propertyPath: m_LocalScale.z
      value: 0.6
      objectReference: {fileID: 0}
    - target: {fileID: 400000, guid: 7c9d933576841444590f1347e1ddf72e, type: 3}
      propertyPath: m_LocalPosition.x
      value: 0
      objectReference: {fileID: 0}
    - target: {fileID: 400000, guid: 7c9d933576841444590f1347e1ddf72e, type: 3}
      propertyPath: m_LocalPosition.y
      value: 0
      objectReference: {fileID: 0}
    - target: {fileID: 400000, guid: 7c9d933576841444590f1347e1ddf72e, type: 3}
      propertyPath: m_LocalPosition.z
      value: 0
      objectReference: {fileID: 0}
    - target: {fileID: 400000, guid: 7c9d933576841444590f1347e1ddf72e, type: 3}
      propertyPath: m_LocalRotation.w
      value: 1
      objectReference: {fileID: 0}
    - target: {fileID: 400000, guid: 7c9d933576841444590f1347e1ddf72e, type: 3}
      propertyPath: m_LocalRotation.x
      value: 0
      objectReference: {fileID: 0}
    - target: {fileID: 400000, guid: 7c9d933576841444590f1347e1ddf72e, type: 3}
      propertyPath: m_LocalRotation.y
      value: 0
      objectReference: {fileID: 0}
    - target: {fileID: 400000, guid: 7c9d933576841444590f1347e1ddf72e, type: 3}
      propertyPath: m_LocalRotation.z
      value: 0
      objectReference: {fileID: 0}
    - target: {fileID: 400000, guid: 7c9d933576841444590f1347e1ddf72e, type: 3}
      propertyPath: m_LocalEulerAnglesHint.x
      value: 0
      objectReference: {fileID: 0}
    - target: {fileID: 400000, guid: 7c9d933576841444590f1347e1ddf72e, type: 3}
      propertyPath: m_LocalEulerAnglesHint.y
      value: 0
      objectReference: {fileID: 0}
    - target: {fileID: 400000, guid: 7c9d933576841444590f1347e1ddf72e, type: 3}
      propertyPath: m_LocalEulerAnglesHint.z
      value: 0
      objectReference: {fileID: 0}
    - target: {fileID: 400000, guid: 7c9d933576841444590f1347e1ddf72e, type: 3}
      propertyPath: m_ConstrainProportionsScale
      value: 1
      objectReference: {fileID: 0}
    m_RemovedComponents: []
    m_RemovedGameObjects: []
    m_AddedGameObjects: []
    m_AddedComponents:
    - targetCorrespondingSourceObject: {fileID: 100000, guid: 7c9d933576841444590f1347e1ddf72e,
        type: 3}
      insertIndex: -1
      addedObject: {fileID: 8605452620752622780}
    - targetCorrespondingSourceObject: {fileID: 100000, guid: 7c9d933576841444590f1347e1ddf72e,
        type: 3}
      insertIndex: -1
      addedObject: {fileID: 6937485194920272745}
    - targetCorrespondingSourceObject: {fileID: 100000, guid: 7c9d933576841444590f1347e1ddf72e,
        type: 3}
      insertIndex: -1
      addedObject: {fileID: 8941045031163111174}
    - targetCorrespondingSourceObject: {fileID: 100000, guid: 7c9d933576841444590f1347e1ddf72e,
        type: 3}
      insertIndex: -1
      addedObject: {fileID: 2080582975166497866}
    - targetCorrespondingSourceObject: {fileID: 100000, guid: 7c9d933576841444590f1347e1ddf72e,
        type: 3}
      insertIndex: -1
      addedObject: {fileID: 3483447747430126011}
  m_SourcePrefab: {fileID: 100100000, guid: 7c9d933576841444590f1347e1ddf72e, type: 3}
--- !u!1 &2691541682904872392 stripped
GameObject:
  m_CorrespondingSourceObject: {fileID: 100000, guid: 7c9d933576841444590f1347e1ddf72e,
    type: 3}
  m_PrefabInstance: {fileID: 2691541682904773480}
  m_PrefabAsset: {fileID: 0}
--- !u!65 &8605452620752622780
BoxCollider:
  m_ObjectHideFlags: 0
  m_CorrespondingSourceObject: {fileID: 0}
  m_PrefabInstance: {fileID: 0}
  m_PrefabAsset: {fileID: 0}
  m_GameObject: {fileID: 2691541682904872392}
  m_Material: {fileID: 0}
  m_IncludeLayers:
    serializedVersion: 2
    m_Bits: 0
  m_ExcludeLayers:
    serializedVersion: 2
    m_Bits: 0
  m_LayerOverridePriority: 0
  m_IsTrigger: 0
  m_ProvidesContacts: 0
  m_Enabled: 1
  serializedVersion: 3
  m_Size: {x: 42, y: 40, z: 64}
  m_Center: {x: 32.2, y: 15, z: -6}
--- !u!65 &6937485194920272745
BoxCollider:
  m_ObjectHideFlags: 0
  m_CorrespondingSourceObject: {fileID: 0}
  m_PrefabInstance: {fileID: 0}
  m_PrefabAsset: {fileID: 0}
  m_GameObject: {fileID: 2691541682904872392}
  m_Material: {fileID: 0}
  m_IncludeLayers:
    serializedVersion: 2
    m_Bits: 0
  m_ExcludeLayers:
    serializedVersion: 2
    m_Bits: 0
  m_LayerOverridePriority: 0
  m_IsTrigger: 0
  m_ProvidesContacts: 0
  m_Enabled: 1
  serializedVersion: 3
  m_Size: {x: 20, y: 40, z: 30}
  m_Center: {x: 12, y: 15, z: -45}
--- !u!65 &8941045031163111174
BoxCollider:
  m_ObjectHideFlags: 0
  m_CorrespondingSourceObject: {fileID: 0}
  m_PrefabInstance: {fileID: 0}
  m_PrefabAsset: {fileID: 0}
  m_GameObject: {fileID: 2691541682904872392}
  m_Material: {fileID: 0}
  m_IncludeLayers:
    serializedVersion: 2
    m_Bits: 0
  m_ExcludeLayers:
    serializedVersion: 2
    m_Bits: 0
  m_LayerOverridePriority: 0
  m_IsTrigger: 0
  m_ProvidesContacts: 0
  m_Enabled: 1
  serializedVersion: 3
  m_Size: {x: 50, y: 40, z: 30}
  m_Center: {x: -40, y: 15, z: -45}
--- !u!65 &2080582975166497866
BoxCollider:
  m_ObjectHideFlags: 0
  m_CorrespondingSourceObject: {fileID: 0}
  m_PrefabInstance: {fileID: 0}
  m_PrefabAsset: {fileID: 0}
  m_GameObject: {fileID: 2691541682904872392}
  m_Material: {fileID: 0}
  m_IncludeLayers:
    serializedVersion: 2
    m_Bits: 0
  m_ExcludeLayers:
    serializedVersion: 2
    m_Bits: 0
  m_LayerOverridePriority: 0
  m_IsTrigger: 0
  m_ProvidesContacts: 0
  m_Enabled: 1
  serializedVersion: 3
  m_Size: {x: 50, y: 40, z: 60.7}
  m_Center: {x: -38.4, y: 15, z: 0.5}
--- !u!65 &3483447747430126011
BoxCollider:
  m_ObjectHideFlags: 0
  m_CorrespondingSourceObject: {fileID: 0}
  m_PrefabInstance: {fileID: 0}
  m_PrefabAsset: {fileID: 0}
  m_GameObject: {fileID: 2691541682904872392}
  m_Material: {fileID: 0}
  m_IncludeLayers:
    serializedVersion: 2
    m_Bits: 0
  m_ExcludeLayers:
    serializedVersion: 2
    m_Bits: 0
  m_LayerOverridePriority: 0
  m_IsTrigger: 0
  m_ProvidesContacts: 0
  m_Enabled: 1
  serializedVersion: 3
  m_Size: {x: 50, y: 40, z: 39}
  m_Center: {x: -2, y: 15, z: 12.6}
