%YAML 1.1
%TAG !u! tag:unity3d.com,2011:
--- !u!114 &11400000
MonoBehaviour:
  m_ObjectHideFlags: 0
  m_CorrespondingSourceObject: {fileID: 0}
  m_PrefabInstance: {fileID: 0}
  m_PrefabAsset: {fileID: 0}
  m_GameObject: {fileID: 0}
  m_Enabled: 1
  m_EditorHideFlags: 0
  m_Script: {fileID: 11500000, guid: 580f901e4f7133c4bb9d5fc9594b6713, type: 3}
  m_Name: Default_Bullet
  m_EditorClassIdentifier: 
  <projectileType>k__BackingField: 0
  <projectileDamage>k__BackingField: 20
  <projectileSpeed>k__BackingField: 10
  <projectileLifetime>k__BackingField: 100
