%YAML 1.1
%TAG !u! tag:unity3d.com,2011:
--- !u!1001 &5819802337714515029
PrefabInstance:
  m_ObjectHideFlags: 0
  serializedVersion: 2
  m_Modification:
    serializedVersion: 3
    m_TransformParent: {fileID: 0}
    m_Modifications:
    - target: {fileID: 100000, guid: 29d877b6d29067545a1768c5db9ead71, type: 3}
      propertyPath: m_Name
      value: SaguaroCactus2
      objectReference: {fileID: 0}
    - target: {fileID: 100000, guid: 29d877b6d29067545a1768c5db9ead71, type: 3}
      propertyPath: m_StaticEditorFlags
      value: 4294967295
      objectReference: {fileID: 0}
    - target: {fileID: 400000, guid: 29d877b6d29067545a1768c5db9ead71, type: 3}
      propertyPath: m_RootOrder
      value: 22
      objectReference: {fileID: 0}
    - target: {fileID: 400000, guid: 29d877b6d29067545a1768c5db9ead71, type: 3}
      propertyPath: m_LocalPosition.x
      value: 0
      objectReference: {fileID: 0}
    - target: {fileID: 400000, guid: 29d877b6d29067545a1768c5db9ead71, type: 3}
      propertyPath: m_LocalPosition.y
      value: 0
      objectReference: {fileID: 0}
    - target: {fileID: 400000, guid: 29d877b6d29067545a1768c5db9ead71, type: 3}
      propertyPath: m_LocalPosition.z
      value: 0
      objectReference: {fileID: 0}
    - target: {fileID: 400000, guid: 29d877b6d29067545a1768c5db9ead71, type: 3}
      propertyPath: m_LocalRotation.w
      value: 1
      objectReference: {fileID: 0}
    - target: {fileID: 400000, guid: 29d877b6d29067545a1768c5db9ead71, type: 3}
      propertyPath: m_LocalRotation.x
      value: 0
      objectReference: {fileID: 0}
    - target: {fileID: 400000, guid: 29d877b6d29067545a1768c5db9ead71, type: 3}
      propertyPath: m_LocalRotation.y
      value: 0
      objectReference: {fileID: 0}
    - target: {fileID: 400000, guid: 29d877b6d29067545a1768c5db9ead71, type: 3}
      propertyPath: m_LocalRotation.z
      value: 0
      objectReference: {fileID: 0}
    - target: {fileID: 400000, guid: 29d877b6d29067545a1768c5db9ead71, type: 3}
      propertyPath: m_LocalEulerAnglesHint.x
      value: 0
      objectReference: {fileID: 0}
    - target: {fileID: 400000, guid: 29d877b6d29067545a1768c5db9ead71, type: 3}
      propertyPath: m_LocalEulerAnglesHint.y
      value: 0
      objectReference: {fileID: 0}
    - target: {fileID: 400000, guid: 29d877b6d29067545a1768c5db9ead71, type: 3}
      propertyPath: m_LocalEulerAnglesHint.z
      value: 0
      objectReference: {fileID: 0}
    m_RemovedComponents: []
    m_RemovedGameObjects: []
    m_AddedGameObjects: []
    m_AddedComponents:
    - targetCorrespondingSourceObject: {fileID: 100000, guid: 29d877b6d29067545a1768c5db9ead71,
        type: 3}
      insertIndex: -1
      addedObject: {fileID: 247539973302486763}
  m_SourcePrefab: {fileID: 100100000, guid: 29d877b6d29067545a1768c5db9ead71, type: 3}
--- !u!1 &5819802337714612981 stripped
GameObject:
  m_CorrespondingSourceObject: {fileID: 100000, guid: 29d877b6d29067545a1768c5db9ead71,
    type: 3}
  m_PrefabInstance: {fileID: 5819802337714515029}
  m_PrefabAsset: {fileID: 0}
--- !u!65 &247539973302486763
BoxCollider:
  m_ObjectHideFlags: 0
  m_CorrespondingSourceObject: {fileID: 0}
  m_PrefabInstance: {fileID: 0}
  m_PrefabAsset: {fileID: 0}
  m_GameObject: {fileID: 5819802337714612981}
  m_Material: {fileID: 0}
  m_IncludeLayers:
    serializedVersion: 2
    m_Bits: 0
  m_ExcludeLayers:
    serializedVersion: 2
    m_Bits: 0
  m_LayerOverridePriority: 0
  m_IsTrigger: 0
  m_ProvidesContacts: 0
  m_Enabled: 1
  serializedVersion: 3
  m_Size: {x: 1.3, y: 3.27, z: 1.2}
  m_Center: {x: -0.1, y: 1.64, z: 0}
