%YAML 1.1
%TAG !u! tag:unity3d.com,2011:
--- !u!1 &3581655001744807383
GameObject:
  m_ObjectHideFlags: 0
  m_CorrespondingSourceObject: {fileID: 0}
  m_PrefabInstance: {fileID: 0}
  m_PrefabAsset: {fileID: 0}
  serializedVersion: 6
  m_Component:
  - component: {fileID: 11870948366636323}
  - component: {fileID: 1867395078111314346}
  - component: {fileID: 3439831279825180619}
  m_Layer: 0
  m_Name: Granada RPG
  m_TagString: Untagged
  m_Icon: {fileID: 0}
  m_NavMeshLayer: 0
  m_StaticEditorFlags: 0
  m_IsActive: 1
--- !u!4 &11870948366636323
Transform:
  m_ObjectHideFlags: 0
  m_CorrespondingSourceObject: {fileID: 0}
  m_PrefabInstance: {fileID: 0}
  m_PrefabAsset: {fileID: 0}
  m_GameObject: {fileID: 3581655001744807383}
  serializedVersion: 2
  m_LocalRotation: {x: -0, y: -0, z: -0, w: 1}
  m_LocalPosition: {x: 0, y: 0, z: 0}
  m_LocalScale: {x: 30, y: 30, z: 30}
  m_ConstrainProportionsScale: 1
  m_Children:
  - {fileID: 1692830262175753478}
  m_Father: {fileID: 0}
  m_LocalEulerAnglesHint: {x: 0, y: 0, z: 0}
--- !u!33 &1867395078111314346
MeshFilter:
  m_ObjectHideFlags: 0
  m_CorrespondingSourceObject: {fileID: 0}
  m_PrefabInstance: {fileID: 0}
  m_PrefabAsset: {fileID: 0}
  m_GameObject: {fileID: 3581655001744807383}
  m_Mesh: {fileID: 8999911773206952699, guid: cc227674673673d4e924f764cc8f3af3, type: 3}
--- !u!23 &3439831279825180619
MeshRenderer:
  m_ObjectHideFlags: 0
  m_CorrespondingSourceObject: {fileID: 0}
  m_PrefabInstance: {fileID: 0}
  m_PrefabAsset: {fileID: 0}
  m_GameObject: {fileID: 3581655001744807383}
  m_Enabled: 1
  m_CastShadows: 1
  m_ReceiveShadows: 1
  m_DynamicOccludee: 1
  m_StaticShadowCaster: 0
  m_MotionVectors: 1
  m_LightProbeUsage: 1
  m_ReflectionProbeUsage: 1
  m_RayTracingMode: 2
  m_RayTraceProcedural: 0
  m_RenderingLayerMask: 1
  m_RendererPriority: 0
  m_Materials:
  - {fileID: 2100000, guid: d3fbdabe09ceeec4ea71d309c28811a4, type: 2}
  m_StaticBatchInfo:
    firstSubMesh: 0
    subMeshCount: 0
  m_StaticBatchRoot: {fileID: 0}
  m_ProbeAnchor: {fileID: 0}
  m_LightProbeVolumeOverride: {fileID: 0}
  m_ScaleInLightmap: 1
  m_ReceiveGI: 1
  m_PreserveUVs: 0
  m_IgnoreNormalsForChartDetection: 0
  m_ImportantGI: 0
  m_StitchLightmapSeams: 1
  m_SelectedEditorRenderState: 3
  m_MinimumChartSize: 4
  m_AutoUVMaxDistance: 0.5
  m_AutoUVMaxAngle: 89
  m_LightmapParameters: {fileID: 0}
  m_SortingLayerID: 0
  m_SortingLayer: 0
  m_SortingOrder: 0
  m_AdditionalVertexStreams: {fileID: 0}
--- !u!1001 &1688580247446237780
PrefabInstance:
  m_ObjectHideFlags: 0
  serializedVersion: 2
  m_Modification:
    serializedVersion: 3
    m_TransformParent: {fileID: 11870948366636323}
    m_Modifications:
    - target: {fileID: 1238843893459588, guid: a2700d7f89910434081c7dc7c92e22ca, type: 3}
      propertyPath: m_Name
      value: Bullet_BlazingRed_Small_Projectile
      objectReference: {fileID: 0}
    - target: {fileID: 1238843893459588, guid: a2700d7f89910434081c7dc7c92e22ca, type: 3}
      propertyPath: m_IsActive
      value: 1
      objectReference: {fileID: 0}
    - target: {fileID: 4836675779974994, guid: a2700d7f89910434081c7dc7c92e22ca, type: 3}
      propertyPath: m_LocalScale.x
      value: 0.02
      objectReference: {fileID: 0}
    - target: {fileID: 4836675779974994, guid: a2700d7f89910434081c7dc7c92e22ca, type: 3}
      propertyPath: m_LocalScale.y
      value: 0.02
      objectReference: {fileID: 0}
    - target: {fileID: 4836675779974994, guid: a2700d7f89910434081c7dc7c92e22ca, type: 3}
      propertyPath: m_LocalScale.z
      value: 0.02
      objectReference: {fileID: 0}
    - target: {fileID: 4836675779974994, guid: a2700d7f89910434081c7dc7c92e22ca, type: 3}
      propertyPath: m_LocalPosition.x
      value: 0
      objectReference: {fileID: 0}
    - target: {fileID: 4836675779974994, guid: a2700d7f89910434081c7dc7c92e22ca, type: 3}
      propertyPath: m_LocalPosition.y
      value: 0
      objectReference: {fileID: 0}
    - target: {fileID: 4836675779974994, guid: a2700d7f89910434081c7dc7c92e22ca, type: 3}
      propertyPath: m_LocalPosition.z
      value: -0.016666677
      objectReference: {fileID: 0}
    - target: {fileID: 4836675779974994, guid: a2700d7f89910434081c7dc7c92e22ca, type: 3}
      propertyPath: m_LocalRotation.w
      value: 1
      objectReference: {fileID: 0}
    - target: {fileID: 4836675779974994, guid: a2700d7f89910434081c7dc7c92e22ca, type: 3}
      propertyPath: m_LocalRotation.x
      value: -0
      objectReference: {fileID: 0}
    - target: {fileID: 4836675779974994, guid: a2700d7f89910434081c7dc7c92e22ca, type: 3}
      propertyPath: m_LocalRotation.y
      value: -0
      objectReference: {fileID: 0}
    - target: {fileID: 4836675779974994, guid: a2700d7f89910434081c7dc7c92e22ca, type: 3}
      propertyPath: m_LocalRotation.z
      value: -0
      objectReference: {fileID: 0}
    - target: {fileID: 4836675779974994, guid: a2700d7f89910434081c7dc7c92e22ca, type: 3}
      propertyPath: m_LocalEulerAnglesHint.x
      value: 0
      objectReference: {fileID: 0}
    - target: {fileID: 4836675779974994, guid: a2700d7f89910434081c7dc7c92e22ca, type: 3}
      propertyPath: m_LocalEulerAnglesHint.y
      value: 0
      objectReference: {fileID: 0}
    - target: {fileID: 4836675779974994, guid: a2700d7f89910434081c7dc7c92e22ca, type: 3}
      propertyPath: m_LocalEulerAnglesHint.z
      value: 0
      objectReference: {fileID: 0}
    - target: {fileID: 4836675779974994, guid: a2700d7f89910434081c7dc7c92e22ca, type: 3}
      propertyPath: m_ConstrainProportionsScale
      value: 1
      objectReference: {fileID: 0}
    - target: {fileID: 198228151580939694, guid: a2700d7f89910434081c7dc7c92e22ca,
        type: 3}
      propertyPath: playOnAwake
      value: 0
      objectReference: {fileID: 0}
    - target: {fileID: 198319394701706832, guid: a2700d7f89910434081c7dc7c92e22ca,
        type: 3}
      propertyPath: playOnAwake
      value: 0
      objectReference: {fileID: 0}
    - target: {fileID: 198861545429755246, guid: a2700d7f89910434081c7dc7c92e22ca,
        type: 3}
      propertyPath: playOnAwake
      value: 0
      objectReference: {fileID: 0}
    - target: {fileID: 198956546110359946, guid: a2700d7f89910434081c7dc7c92e22ca,
        type: 3}
      propertyPath: playOnAwake
      value: 0
      objectReference: {fileID: 0}
    - target: {fileID: 199041641609785352, guid: a2700d7f89910434081c7dc7c92e22ca,
        type: 3}
      propertyPath: m_Materials.Array.size
      value: 1
      objectReference: {fileID: 0}
    - target: {fileID: 199044534075849594, guid: a2700d7f89910434081c7dc7c92e22ca,
        type: 3}
      propertyPath: m_Materials.Array.size
      value: 1
      objectReference: {fileID: 0}
    - target: {fileID: 199187720539646952, guid: a2700d7f89910434081c7dc7c92e22ca,
        type: 3}
      propertyPath: m_Materials.Array.size
      value: 1
      objectReference: {fileID: 0}
    - target: {fileID: 199353229655422934, guid: a2700d7f89910434081c7dc7c92e22ca,
        type: 3}
      propertyPath: m_Materials.Array.size
      value: 1
      objectReference: {fileID: 0}
    m_RemovedComponents: []
    m_RemovedGameObjects: []
    m_AddedGameObjects: []
    m_AddedComponents: []
  m_SourcePrefab: {fileID: 100100000, guid: a2700d7f89910434081c7dc7c92e22ca, type: 3}
--- !u!4 &1692830262175753478 stripped
Transform:
  m_CorrespondingSourceObject: {fileID: 4836675779974994, guid: a2700d7f89910434081c7dc7c92e22ca,
    type: 3}
  m_PrefabInstance: {fileID: 1688580247446237780}
  m_PrefabAsset: {fileID: 0}
