%YAML 1.1
%TAG !u! tag:unity3d.com,2011:
--- !u!1001 &932453181197990720
PrefabInstance:
  m_ObjectHideFlags: 0
  serializedVersion: 2
  m_Modification:
    serializedVersion: 3
    m_TransformParent: {fileID: 0}
    m_Modifications:
    - target: {fileID: 100000, guid: 305bd4b8902fd974fa30361c5ed6ea76, type: 3}
      propertyPath: m_Name
      value: Tent1
      objectReference: {fileID: 0}
    - target: {fileID: 100000, guid: 305bd4b8902fd974fa30361c5ed6ea76, type: 3}
      propertyPath: m_StaticEditorFlags
      value: 4294967295
      objectReference: {fileID: 0}
    - target: {fileID: 400000, guid: 305bd4b8902fd974fa30361c5ed6ea76, type: 3}
      propertyPath: m_RootOrder
      value: 16
      objectReference: {fileID: 0}
    - target: {fileID: 400000, guid: 305bd4b8902fd974fa30361c5ed6ea76, type: 3}
      propertyPath: m_LocalPosition.x
      value: 0
      objectReference: {fileID: 0}
    - target: {fileID: 400000, guid: 305bd4b8902fd974fa30361c5ed6ea76, type: 3}
      propertyPath: m_LocalPosition.y
      value: 0
      objectReference: {fileID: 0}
    - target: {fileID: 400000, guid: 305bd4b8902fd974fa30361c5ed6ea76, type: 3}
      propertyPath: m_LocalPosition.z
      value: 0
      objectReference: {fileID: 0}
    - target: {fileID: 400000, guid: 305bd4b8902fd974fa30361c5ed6ea76, type: 3}
      propertyPath: m_LocalRotation.w
      value: 1
      objectReference: {fileID: 0}
    - target: {fileID: 400000, guid: 305bd4b8902fd974fa30361c5ed6ea76, type: 3}
      propertyPath: m_LocalRotation.x
      value: 0
      objectReference: {fileID: 0}
    - target: {fileID: 400000, guid: 305bd4b8902fd974fa30361c5ed6ea76, type: 3}
      propertyPath: m_LocalRotation.y
      value: 0
      objectReference: {fileID: 0}
    - target: {fileID: 400000, guid: 305bd4b8902fd974fa30361c5ed6ea76, type: 3}
      propertyPath: m_LocalRotation.z
      value: 0
      objectReference: {fileID: 0}
    - target: {fileID: 400000, guid: 305bd4b8902fd974fa30361c5ed6ea76, type: 3}
      propertyPath: m_LocalEulerAnglesHint.x
      value: 0
      objectReference: {fileID: 0}
    - target: {fileID: 400000, guid: 305bd4b8902fd974fa30361c5ed6ea76, type: 3}
      propertyPath: m_LocalEulerAnglesHint.y
      value: 0
      objectReference: {fileID: 0}
    - target: {fileID: 400000, guid: 305bd4b8902fd974fa30361c5ed6ea76, type: 3}
      propertyPath: m_LocalEulerAnglesHint.z
      value: 0
      objectReference: {fileID: 0}
    m_RemovedComponents: []
    m_RemovedGameObjects: []
    m_AddedGameObjects: []
    m_AddedComponents:
    - targetCorrespondingSourceObject: {fileID: 100000, guid: 305bd4b8902fd974fa30361c5ed6ea76,
        type: 3}
      insertIndex: -1
      addedObject: {fileID: 935178892485214705}
  m_SourcePrefab: {fileID: 100100000, guid: 305bd4b8902fd974fa30361c5ed6ea76, type: 3}
--- !u!1 &932453181197958624 stripped
GameObject:
  m_CorrespondingSourceObject: {fileID: 100000, guid: 305bd4b8902fd974fa30361c5ed6ea76,
    type: 3}
  m_PrefabInstance: {fileID: 932453181197990720}
  m_PrefabAsset: {fileID: 0}
--- !u!65 &935178892485214705
BoxCollider:
  m_ObjectHideFlags: 0
  m_CorrespondingSourceObject: {fileID: 0}
  m_PrefabInstance: {fileID: 0}
  m_PrefabAsset: {fileID: 0}
  m_GameObject: {fileID: 932453181197958624}
  m_Material: {fileID: 0}
  m_IncludeLayers:
    serializedVersion: 2
    m_Bits: 0
  m_ExcludeLayers:
    serializedVersion: 2
    m_Bits: 0
  m_LayerOverridePriority: 0
  m_IsTrigger: 0
  m_ProvidesContacts: 0
  m_Enabled: 1
  serializedVersion: 3
  m_Size: {x: 3.5, y: 2.02, z: 3.62}
  m_Center: {x: -0.14, y: 0.73, z: 0}
